<svg xmlns="http://www.w3.org/2000/svg" width="21.522" height="21.522" viewBox="0 0 21.522 21.522">
  <path id="Path_53143" data-name="Path 53143" d="M21.522,19.627,17.056,15.16a9.268,9.268,0,0,0,1.9-5.685A9.417,9.417,0,0,0,9.475,0,9.417,9.417,0,0,0,0,9.475a9.417,9.417,0,0,0,9.475,9.475,9.268,9.268,0,0,0,5.685-1.9l4.467,4.467ZM2.707,9.475A6.7,6.7,0,0,1,9.475,2.707a6.7,6.7,0,0,1,6.768,6.768,6.7,6.7,0,0,1-6.768,6.768A6.7,6.7,0,0,1,2.707,9.475Z" fill="#0d242e" opacity="0.5"/>
</svg>
